<svg width="26" height="26" viewBox="0 0 26 26" fill="none" xmlns="http://www.w3.org/2000/svg">
<path d="M13 25C19.6274 25 25 19.6274 25 13C25 6.37258 19.6274 1 13 1C6.37258 1 1 6.37258 1 13C1 19.6274 6.37258 25 13 25Z" stroke="black" stroke-width="2"/>
<path d="M13 7H13.012" stroke="black" stroke-width="2" stroke-linecap="round"/>
<path d="M10.6 17.8H15.4M10.6 11.8L13 11.8V17.8C13 12.5 13.2815 11.739 10.6 11.8Z" stroke="black" stroke-width="2" stroke-linecap="round" stroke-linejoin="round"/>
</svg>
