<svg width="38" height="38" viewBox="0 0 38 38" fill="none" xmlns="http://www.w3.org/2000/svg">
<path fill-rule="evenodd" clip-rule="evenodd" d="M18.0635 19.9448C26.0416 27.9207 27.8515 18.6934 32.9313 23.7696C37.8286 28.6655 40.6432 29.6464 34.4385 35.8494C33.6613 36.474 28.7232 43.9885 11.3692 26.6393C-5.98696 9.288 1.52317 4.34489 2.14794 3.5679C8.36773 -2.65231 9.33173 0.178766 14.229 5.07466C19.3087 10.153 10.0853 11.9688 18.0635 19.9448Z" fill="#FF3D00"/>
</svg>
