<svg width="26" height="24" viewBox="0 0 26 24" fill="none" xmlns="http://www.w3.org/2000/svg">
<path d="M24.8923 11.8034L13.3434 0.262835C13.2602 0.179517 13.1615 0.113416 13.0527 0.0683154C12.944 0.0232147 12.8274 0 12.7097 0C12.592 0 12.4755 0.0232147 12.3667 0.0683154C12.258 0.113416 12.1592 0.179517 12.0761 0.262835L0.527119 11.8034C0.19066 12.1398 0 12.5969 0 13.0735C0 14.0633 0.804697 14.8679 1.79445 14.8679H3.01131V23.1028C3.01131 23.5991 3.41225 24 3.90853 24H10.9153V17.7194H14.0556V24H21.5109C22.0072 24 22.4082 23.5991 22.4082 23.1028V14.8679H23.625C24.1017 14.8679 24.5587 14.6801 24.8951 14.3408C25.5933 13.6399 25.5933 12.5043 24.8923 11.8034V11.8034Z" fill="#FF8947"/>
</svg>
